{
  "buildFiles": [
    "D:\\Unity Engine Project\\Bangun Ruang Geometri AR\\unity project\\Bangun Ruang Geometri\\Library\\Bee\\Android\\Prj\\IL2CPP\\Gradle\\unityLibrary\\src\\main\\cpp\\CMakeLists.txt",
    "D:\\Unity Engine Project\\Bangun Ruang Geometri AR\\unity project\\Bangun Ruang Geometri\\Library\\Bee\\Android\\Prj\\IL2CPP\\Gradle\\unityLibrary\\src\\main\\cpp\\FramePacing\\CMakeLists.txt"
  ],
  "cleanCommandsComponents": [
    [
      "C:\\Program Files\\Unity\\Hub\\Editor\\2023.1.0a25\\Editor\\Data\\PlaybackEngines\\AndroidPlayer\\SDK\\cmake\\3.22.1\\bin\\ninja.exe",
      "-C",
      "D:\\Unity Engine Project\\Bangun Ruang Geometri AR\\unity project\\Bangun Ruang Geometri\\.utmp\\RelWithDebInfo\\v1o3f623\\arm64-v8a",
      "clean"
    ]
  ],
  "buildTargetsCommandComponents": [
    "C:\\Program Files\\Unity\\Hub\\Editor\\2023.1.0a25\\Editor\\Data\\PlaybackEngines\\AndroidPlayer\\SDK\\cmake\\3.22.1\\bin\\ninja.exe",
    "-C",
    "D:\\Unity Engine Project\\Bangun Ruang Geometri AR\\unity project\\Bangun Ruang Geometri\\.utmp\\RelWithDebInfo\\v1o3f623\\arm64-v8a",
    "{LIST_OF_TARGETS_TO_BUILD}"
  ],
  "libraries": {
    "swappywrapper::@7e25bd1f32ce224db4e9": {
      "toolchain": "toolchain",
      "abi": "arm64-v8a",
      "artifactName": "swappywrapper",
      "output": "D:\\Unity Engine Project\\Bangun Ruang Geometri AR\\unity project\\Bangun Ruang Geometri\\Library\\Bee\\Android\\Prj\\IL2CPP\\Gradle\\unityLibrary\\build\\intermediates\\cxx\\RelWithDebInfo\\v1o3f623\\obj\\arm64-v8a\\libswappywrapper.so",
      "runtimeFiles": []
    }
  },
  "toolchains": {
    "toolchain": {
      "cCompilerExecutable": "C:\\Program Files\\Unity\\Hub\\Editor\\2023.1.0a25\\Editor\\Data\\PlaybackEngines\\AndroidPlayer\\NDK\\toolchains\\llvm\\prebuilt\\windows-x86_64\\bin\\clang.exe",
      "cppCompilerExecutable": "C:\\Program Files\\Unity\\Hub\\Editor\\2023.1.0a25\\Editor\\Data\\PlaybackEngines\\AndroidPlayer\\NDK\\toolchains\\llvm\\prebuilt\\windows-x86_64\\bin\\clang++.exe"
    }
  },
  "cFileExtensions": [],
  "cppFileExtensions": [
    "cpp"
  ]
}