[
{
  "directory": "D:/Unity Engine Project/Bangun Ruang Geometri AR/unity project/Bangun Ruang Geometri/.utmp/RelWithDebInfo/v1o3f623/arm64-v8a",
  "command": "C:\\PROGRA~1\\Unity\\Hub\\Editor\\20231~2.0A2\\Editor\\Data\\PLAYBA~1\\ANDROI~1\\NDK\\TOOLCH~1\\llvm\\prebuilt\\WINDOW~1\\bin\\CLANG_~1.EXE --target=aarch64-none-linux-android26 --sysroot=\"C:/Program Files/Unity/Hub/Editor/2023.1.0a25/Editor/Data/PlaybackEngines/AndroidPlayer/NDK/toolchains/llvm/prebuilt/windows-x86_64/sysroot\" -DEXTERNAL_FRAME_PACING_CODE -Dswappywrapper_EXPORTS -isystem \"C:/Users/My Windows/.gradle/caches/transforms-3/467c3579f266553acb3501b86c7ede7f/transformed/games-frame-pacing-1.10.0/prefab/modules/swappy_static/include\" -DANDROID -fdata-sections -ffunction-sections -funwind-tables -fstack-protector-strong -no-canonical-prefixes -D_FORTIFY_SOURCE=2 -Wformat -Werror=format-security -fexceptions -frtti -stdlib=libc++ -Wall -Wextra -pedantic -Werror -O2 -g -DNDEBUG -fPIC -o FramePacing\\CMakeFiles\\swappywrapper.dir\\UnitySwappyWrapper.cpp.o -c \"D:\\Unity Engine Project\\Bangun Ruang Geometri AR\\unity project\\Bangun Ruang Geometri\\Library\\Bee\\Android\\Prj\\IL2CPP\\Gradle\\unityLibrary\\src\\main\\cpp\\FramePacing\\UnitySwappyWrapper.cpp\"",
  "file": "D:\\Unity Engine Project\\Bangun Ruang Geometri AR\\unity project\\Bangun Ruang Geometri\\Library\\Bee\\Android\\Prj\\IL2CPP\\Gradle\\unityLibrary\\src\\main\\cpp\\FramePacing\\UnitySwappyWrapper.cpp"
}
]