%YAML 1.1
%TAG !u! tag:unity3d.com,2011:
--- !u!1045 &1
EditorBuildSettings:
  m_ObjectHideFlags: 0
  serializedVersion: 2
  m_Scenes:
  - enabled: 1
    path: Assets/Scenes/Main Menu Scene.unity
    guid: 9fc0d4010bbf28b4594072e72b8655ab
  - enabled: 1
    path: Assets/Scenes/Quiz Scene.unity
    guid: 0c5a938976ddd424d8ac55fd95c131a3
  - enabled: 1
    path: Assets/Scenes/AR Scene.unity
    guid: 5c6f92ac5cd897a4ba90b4d28ad03fd3
  m_configObjects: {}
  m_UseUCBPForAssetBundles: 0
